<svg width="1920" height="1083" class="container--1-background1" viewBox="0 0 1920 1083" fill="none" xmlns="http://www.w3.org/2000/svg">
<path d="M2223.98 1077.12L2304.58 348.841L-65.0678 58.8826L-269.968 150.643C-407.358 169.705 -497.611 406.126 -235.328 761.612C92.5256 1205.97 825.805 858.941 1362.46 866.822C1791.79 873.126 2115.69 1009.65 2223.98 1077.12Z" fill="url(#paint0_linear_0_1)"/>
<path d="M2150.4 1053.5L2184.5 20L154.5 -203L-15.4999 -57.5C-131.5 -19.8333 -197.101 320.7 42.8993 801.5C342.899 1402.5 950.399 855.5 1407.4 824.5C1773 799.7 2055.07 966.833 2150.4 1053.5Z" fill="#EEFBFC"/>
<defs>
<linearGradient id="paint0_linear_0_1" x1="2.99991" y1="278.5" x2="1498.5" y2="921" gradientUnits="userSpaceOnUse">
<stop stop-color="#FED02B"/>
<stop offset="1" stop-color="#FFEAA0"/>
</linearGradient>
</defs>
</svg>
