<svg width="271" height="78" viewBox="0 0 271 78" fill="none" xmlns="http://www.w3.org/2000/svg">
<g clip-path="url(#clip0_1_5156)">
<path d="M233.901 39.2121L213.601 27.5359C210.317 25.6488 206.214 28.0083 206.214 31.785V55.1375C206.214 58.9142 210.317 61.2737 213.601 59.3866L233.901 47.7104C237.185 45.8233 237.185 41.1017 233.901 39.2121V39.2121Z" fill="#FF894D"/>
<path d="M232.815 37.2014L212.516 25.5251C209.232 23.638 205.129 25.9975 205.129 29.7742V53.1268C205.129 56.9035 209.232 59.263 212.516 57.3759L232.815 45.6996C236.099 43.8125 236.099 39.091 232.815 37.2014Z" fill="#FED02B"/>
<path opacity="0.46" d="M211.938 57.7067L216.102 55.3119C212.493 50.9693 210.317 45.4015 210.317 39.3233C210.317 34.574 211.646 30.138 213.946 26.3511L211.938 25.1966C208.91 23.4561 205.126 25.6312 205.126 29.1148V53.7936C205.126 57.2748 208.91 59.4524 211.938 57.7118V57.7067Z" fill="#FF894D"/>
<path opacity="0.61" d="M232.815 37.2013L218.711 29.0896C218.66 30.9994 218.939 32.9396 219.223 34.6271C221.011 40.5638 226.704 45.3889 233.17 45.4596C236.084 43.4437 235.972 39.0152 232.815 37.1988V37.2013Z" fill="#FFAC3E"/>
<path d="M267.569 29.8373C265.718 31.0373 263.983 32.3131 262.416 33.6343C260.859 34.9479 259.437 36.3171 258.189 37.7066C257.661 38.2927 257.172 38.8787 256.711 39.4648C256.46 52.9322 245.431 63.7722 231.854 63.7722C218.277 63.7722 206.985 52.6796 206.985 38.9975C206.985 25.3154 218.12 14.2227 231.854 14.2227C233.812 14.2227 235.711 14.4551 237.54 14.8795C238.032 12.9545 238.734 10.8426 239.667 8.56141C240.745 5.86086 241.878 3.57715 243.101 1.637C239.533 0.578508 235.759 0 231.849 0C210.229 0 192.701 17.4613 192.701 39C192.701 60.5387 210.229 78 231.849 78C253.47 78 270.997 60.5387 270.997 39C270.997 35.3976 270.498 31.9139 269.58 28.6045C268.898 29.0062 268.223 29.4129 267.566 29.8373H267.569Z" fill="url(#paint0_linear_1_5156)"/>
<path opacity="0.33" d="M269.58 28.6047C268.898 29.0064 268.223 29.4131 267.567 29.8375C266.996 30.2064 266.441 30.5853 265.895 30.9693C265.649 32.1516 265.358 33.3338 265.016 34.5161C258.511 56.9238 236.903 70.3861 216.753 64.5808C205.314 61.2841 196.807 52.4877 192.777 41.3976C194.02 61.8197 211.038 78.0027 231.849 78.0027C252.661 78.0027 270.998 60.5414 270.998 39.0027C270.998 35.4003 270.498 31.9166 269.58 28.6073V28.6047Z" fill="#2E54E5"/>
<path d="M269.58 28.6047C268.898 29.0064 268.223 29.4131 267.567 29.8375C265.715 31.0375 263.981 32.3132 262.414 33.6345C261.493 34.41 260.628 35.2083 259.809 36.0167C259.543 37.3581 259.219 38.7021 258.831 40.0435C252.326 62.4512 230.718 75.9135 210.568 70.1082C209.108 69.6863 207.698 69.1735 206.336 68.5824C213.188 74.4534 222.101 78.0027 231.849 78.0027C253.47 78.0027 270.998 60.5414 270.998 39.0027C270.998 35.4003 270.498 31.9166 269.58 28.6073V28.6047Z" fill="url(#paint1_linear_1_5156)"/>
<path d="M241.676 4.12793C242.137 3.24123 242.609 2.41262 243.093 1.63959C240.496 0.86404 237.788 0.351215 234.999 0.128906C237.393 1.21519 239.624 2.56167 241.676 4.12793V4.12793Z" fill="url(#paint2_linear_1_5156)"/>
<path d="M269.58 28.6045C268.898 29.0062 268.223 29.4129 267.567 29.8373C265.715 31.0373 263.981 32.313 262.414 33.6342C260.857 34.9479 259.434 36.3171 258.187 37.7065C257.679 38.2699 257.208 38.8357 256.759 39.4016C256.716 40.0584 256.66 40.7178 256.589 41.3797C256.548 41.8167 256.495 42.2487 256.429 42.6781C256.122 44.9366 255.646 47.2077 254.989 49.4737C251.071 62.9739 241.671 73.2228 230.409 77.9721C230.886 77.9898 231.365 77.9999 231.847 77.9999C253.467 77.9999 270.995 60.5386 270.995 38.9999C270.995 35.3975 270.495 31.9139 269.577 28.6045H269.58Z" fill="url(#paint3_linear_1_5156)"/>
<path opacity="0.6" d="M206.983 39C206.983 30.9489 210.84 23.7971 216.812 19.2726C220.889 14.589 226.433 11.1003 232.957 9.58958C235.171 9.07676 237.383 8.82919 239.563 8.80645C239.596 8.72561 239.627 8.6473 239.66 8.56646C239.764 8.30626 239.868 8.05363 239.974 7.80101C240.06 5.72445 240.291 3.45589 240.669 1.00544C237.836 0.351147 234.885 0 231.849 0C219.056 0 207.698 6.11349 200.555 15.5692C199.51 23.0771 200.387 31.3455 203.501 39.4295C205.492 44.6032 208.218 49.2161 211.443 53.152C208.634 49.1403 206.983 44.2621 206.983 39Z" fill="#1F6BDB"/>
<path d="M260.955 17.2139C264.001 15.8977 268.005 22.4735 268.005 22.4735C266.085 23.5673 262.832 26.0885 261.098 27.3769C259.363 28.6653 257.765 30.0092 256.305 31.4113C254.844 32.8133 253.533 34.2508 252.367 35.7286C251.2 37.2065 250.214 38.6717 249.402 40.1268L247.234 39.4674C247.219 38.7828 247.239 38.0603 247.29 37.2999C247.341 36.5395 247.422 35.7791 247.531 35.0187C247.64 34.2584 247.784 33.5308 247.969 32.8336C248.152 32.1388 248.357 31.5174 248.583 30.9667C247.599 30.6307 246.656 30.32 245.758 30.0345C244.858 29.749 243.973 29.3221 243.098 28.7562C241.518 27.7205 240.519 26.4296 240.093 24.881C239.845 23.9741 239.852 22.6377 240.119 20.8718C240.385 19.1085 240.897 17.0875 241.658 14.8165C242.55 12.078 243.537 9.83978 244.615 8.09668C245.692 6.3561 247.064 5.25972 248.725 4.80752C250.414 4.35027 251.999 4.40585 253.48 4.97931C253.848 5.16625 254.413 5.46434 255.171 5.87612C255.932 6.28789 256.746 6.8184 257.616 7.47017L256.716 16.0189C253.69 14.5462 251.669 13.9449 250.652 14.2228C250.115 14.3693 249.58 14.5436 249.047 14.7457C248.512 14.9478 247.99 15.2762 247.48 15.731C246.925 16.2261 246.511 16.6909 246.24 17.1204C245.969 17.5524 245.877 17.9288 245.966 18.2496C246.448 20.0129 249.57 21.0588 255.334 21.3872C257.104 19.9599 258.957 18.5831 260.897 17.2517" fill="url(#paint4_linear_1_5156)"/>
<path d="M206.983 39.0001C206.983 25.318 218.118 14.2253 231.852 14.2253C233.81 14.2253 235.709 14.4577 237.537 14.8821C238.029 12.9571 238.732 10.8452 239.665 8.56402C240.743 5.86347 241.876 3.57976 243.098 1.63961C239.535 0.576066 235.762 -0.00244141 231.854 -0.00244141C222.398 -0.00244141 213.723 3.33724 206.958 8.90001C203.362 15.448 201.759 23.7593 202.976 32.4799C203.836 38.6439 205.994 44.2243 209.037 48.8499C207.721 45.8285 206.988 42.4989 206.988 38.9976L206.983 39.0001Z" fill="url(#paint5_linear_1_5156)"/>
<path d="M269.58 28.6047C268.898 29.0064 268.223 29.4131 267.567 29.8375C265.715 31.0375 263.981 32.3132 262.414 33.6345C260.857 34.9481 259.434 36.3173 258.186 37.7068C257.664 38.2878 257.177 38.8713 256.716 39.4549C257.248 41.3092 257.667 43.2291 257.943 45.2173C259.424 55.8527 256.721 65.8717 251.312 72.834C263.07 66.1067 270.997 53.478 270.997 39.0002C270.997 35.3978 270.498 31.9141 269.58 28.6047V28.6047Z" fill="url(#paint6_linear_1_5156)"/>
<path d="M250.153 74.4304C254.045 69.3982 256.404 63.2923 257.365 57.0424C258.336 50.7243 257.71 44.3506 256.371 38.1057C259.17 45.2625 259.901 53.3566 257.928 60.8342C256.596 65.8539 254.04 70.9089 250.15 74.4304H250.153Z" fill="white"/>
<path opacity="0.19" d="M237.535 14.8846C238.027 12.9596 238.729 10.8477 239.662 8.56647C239.911 7.94249 240.164 7.34124 240.42 6.76021C229.367 6.4419 217.925 13.4118 211.294 25.0602C215.769 18.5198 223.306 14.2252 231.852 14.2252C233.809 14.2252 235.709 14.4576 237.537 14.8821L237.535 14.8846Z" fill="#92FAFF"/>
<path d="M234.999 43.0572C235.724 40.9629 234.999 38.4569 232.813 37.2014L227.391 34.084C228.611 37.8784 231.421 41.1903 234.996 43.0572H234.999Z" fill="#FED02B"/>
<path opacity="0.19" d="M269.58 28.6047C268.898 29.0064 268.223 29.4131 267.567 29.8375C266.152 30.752 264.808 31.7145 263.552 32.7073C265.287 39.9905 265.193 47.9961 262.885 55.9436C261.483 60.7789 259.373 65.1947 256.731 69.0927C265.439 61.9409 270.998 51.1211 270.998 39.0002C270.998 35.3978 270.498 31.9141 269.58 28.6047V28.6047Z" fill="#92FAFF"/>
<path opacity="0.35" d="M257.388 9.6604L257.618 7.47268C256.749 6.82091 255.935 6.28787 255.174 5.87862C254.413 5.46937 253.85 5.16875 253.483 4.98181C252.002 4.40835 250.417 4.35025 248.728 4.81003C247.064 5.26222 245.695 6.35861 244.617 8.09918C243.54 9.83976 242.553 12.0805 241.66 14.819C240.9 17.09 240.385 19.1085 240.121 20.8743C239.855 22.6402 239.847 23.9766 240.096 24.8835C240.195 25.2422 240.327 25.5832 240.486 25.9142C241.28 20.6824 243.37 15.6551 246.861 11.6233C249.661 8.63474 253.822 8.23055 257.395 9.66292L257.388 9.6604Z" fill="url(#paint7_linear_1_5156)"/>
<path opacity="0.2" d="M247.947 30.7546C248.157 30.8253 248.365 30.8935 248.581 30.9668C248.355 31.515 248.152 32.1364 247.967 32.8337C247.782 33.5284 247.637 34.2584 247.528 35.0188C247.419 35.7792 247.341 36.5396 247.288 37.3C247.237 38.0604 247.219 38.7829 247.232 39.4675L249.4 40.1269C250.211 38.6718 251.2 37.2066 252.364 35.7287C253.528 34.2509 254.842 32.8109 256.302 31.4114C257.763 30.0119 259.361 28.6679 261.095 27.377C262.83 26.0886 266.086 23.5674 268.003 22.4736C268.003 22.4736 263.999 15.8978 260.953 17.214L260.895 17.2544C258.955 18.5857 257.101 19.9625 255.331 21.3898C255.199 21.3822 255.075 21.3721 254.946 21.3646C254.789 21.5237 254.629 21.6829 254.474 21.842C252.012 24.5678 249.676 27.5488 247.944 30.7546H247.947Z" fill="url(#paint8_linear_1_5156)"/>
<path d="M52.8216 63.3933L50.4531 70.9569H49.1497L47.3214 64.9545L45.493 70.9569H44.1896L41.8059 63.3933H43.0941L44.8388 69.7417L46.7229 63.3933H48.0111L49.8547 69.7544L51.5714 63.3933H52.8191H52.8216Z" fill="#57739B"/>
<path d="M64.8187 63.3933L62.4502 70.9569H61.1468L59.3184 64.9545L57.4901 70.9569H56.1867L53.803 63.3933H55.0912L56.8358 69.7417L58.72 63.3933H60.0082L61.8517 69.7544L63.5685 63.3933H64.8161H64.8187Z" fill="#57739B"/>
<path d="M76.8157 63.3933L74.4473 70.9569H73.1438L71.3155 64.9545L69.4872 70.9569H68.1837L65.8 63.3933H67.0883L68.8329 69.7417L70.717 63.3933H72.0052L73.8488 69.7544L75.5656 63.3933H76.8132H76.8157Z" fill="#57739B"/>
<path d="M78.4919 70.79C78.3246 70.6233 78.2434 70.4212 78.2434 70.1837C78.2434 69.9462 78.3271 69.7416 78.4919 69.5774C78.6593 69.4107 78.8622 69.3298 79.1005 69.3298C79.3389 69.3298 79.5265 69.4132 79.6888 69.5774C79.8511 69.7441 79.9323 69.9462 79.9323 70.1837C79.9323 70.4212 79.8511 70.6258 79.6888 70.79C79.5265 70.9567 79.3313 71.0376 79.1005 71.0376C78.8698 71.0376 78.6568 70.9542 78.4919 70.79Z" fill="#57739B"/>
<path d="M83.6245 70.5955C83.0463 70.2746 82.595 69.8148 82.2678 69.2212C81.9407 68.6275 81.7759 67.9404 81.7759 67.1572C81.7759 66.3741 81.9458 65.7021 82.2805 65.1085C82.6178 64.5148 83.0768 64.0601 83.66 63.7418C84.2407 63.4235 84.8924 63.2668 85.6126 63.2668C86.3328 63.2668 86.9845 63.426 87.5652 63.7418C88.1459 64.0601 88.6074 64.5123 88.9447 65.1009C89.282 65.6895 89.4493 66.3741 89.4493 67.1572C89.4493 67.9404 89.2769 68.6275 88.9295 69.2212C88.5821 69.8148 88.1155 70.2721 87.5246 70.5955C86.9338 70.9163 86.277 71.078 85.5568 71.078C84.8366 71.078 84.2001 70.9163 83.6245 70.5955V70.5955ZM86.8323 69.6557C87.2305 69.4435 87.55 69.1277 87.796 68.7033C88.0394 68.2814 88.1637 67.7661 88.1637 67.1572C88.1637 66.5484 88.0445 66.0356 87.8036 65.6112C87.5627 65.1893 87.2482 64.8735 86.8628 64.6664C86.4773 64.4592 86.0538 64.3557 85.6025 64.3557C85.1511 64.3557 84.7175 64.4592 84.3345 64.6664C83.9516 64.8735 83.6448 65.1893 83.414 65.6112C83.1833 66.0331 83.0666 66.5484 83.0666 67.1572C83.0666 67.7661 83.1807 68.2941 83.4064 68.7159C83.6321 69.1403 83.9339 69.4536 84.3142 69.6607C84.6921 69.8679 85.108 69.9715 85.5619 69.9715C86.0158 69.9715 86.4393 69.8654 86.8374 69.6532L86.8323 69.6557Z" fill="#57739B"/>
<path d="M92.8701 70.7824C92.4085 70.5853 92.0434 70.3075 91.7746 69.9538C91.5058 69.6001 91.3587 69.1934 91.3308 68.7336H92.6342C92.6697 69.11 92.8498 69.4182 93.1668 69.6582C93.4863 69.8982 93.9021 70.0169 94.4195 70.0169C94.8987 70.0169 95.2791 69.9108 95.5555 69.6986C95.8319 69.4864 95.9714 69.2212 95.9714 68.8978C95.9714 68.5745 95.8243 68.3193 95.5276 68.1602C95.2309 67.9985 94.7745 67.8393 94.1557 67.6852C93.5928 67.5387 93.1338 67.3897 92.7762 67.2356C92.4212 67.084 92.1169 66.8591 91.8608 66.5585C91.6072 66.2604 91.4804 65.8663 91.4804 65.3788C91.4804 64.9923 91.5945 64.6386 91.8278 64.3152C92.0586 63.9944 92.3857 63.7367 92.8117 63.5498C93.2352 63.3603 93.7221 63.2668 94.2673 63.2668C95.1067 63.2668 95.7863 63.479 96.3036 63.9009C96.8209 64.3253 97.0973 64.9038 97.1353 65.639H95.875C95.8471 65.2424 95.6874 64.9266 95.3983 64.6866C95.1092 64.4466 94.7162 64.3279 94.2267 64.3279C93.7728 64.3279 93.4127 64.4239 93.1465 64.6184C92.8777 64.8104 92.7458 65.0655 92.7458 65.3763C92.7458 65.6238 92.827 65.8284 92.9893 65.9901C93.1515 66.1518 93.3544 66.2806 93.5979 66.3766C93.8413 66.4726 94.1811 66.5813 94.6147 66.7C95.1599 66.8465 95.6037 66.993 95.946 67.1345C96.2884 67.2785 96.58 67.4907 96.826 67.7762C97.0694 68.0616 97.1987 68.433 97.2063 68.8953C97.2063 69.3096 97.0897 69.681 96.8589 70.0119C96.6282 70.3428 96.3036 70.603 95.8826 70.7925C95.4617 70.982 94.9799 71.0754 94.4347 71.0754C93.854 71.0754 93.3316 70.9769 92.8701 70.7799V70.7824Z" fill="#57739B"/>
<path d="M101.155 64.4265V68.8853C101.155 69.2542 101.233 69.5144 101.391 69.6659C101.548 69.8175 101.819 69.8933 102.207 69.8933H103.135V70.9569H101.999C101.297 70.9569 100.772 70.7952 100.419 70.4743C100.069 70.1535 99.8919 69.623 99.8919 68.8879V64.4291H98.908V63.3933H99.8919V61.4885H101.152V63.3933H103.133V64.4291H101.152L101.155 64.4265Z" fill="#57739B"/>
<path d="M112.183 67.6423H106.115C106.16 68.3875 106.416 68.9686 106.883 69.3879C107.35 69.8073 107.915 70.0169 108.58 70.0169C109.125 70.0169 109.579 69.8906 109.944 69.638C110.309 69.3854 110.565 69.0469 110.712 68.6225H112.069C111.866 69.35 111.46 69.9412 110.849 70.3959C110.238 70.8506 109.482 71.078 108.577 71.078C107.857 71.078 107.213 70.9163 106.645 70.5955C106.077 70.2746 105.63 69.8148 105.308 69.2212C104.986 68.6275 104.824 67.9404 104.824 67.1572C104.824 66.3741 104.981 65.6895 105.296 65.1009C105.61 64.5123 106.051 64.0601 106.619 63.7418C107.187 63.4235 107.842 63.2668 108.58 63.2668C109.317 63.2668 109.936 63.4235 110.492 63.7367C111.044 64.05 111.473 64.4794 111.772 65.0276C112.071 65.5758 112.224 66.1948 112.224 66.8844C112.224 67.1244 112.211 67.377 112.183 67.6423V67.6423ZM110.603 65.3864C110.39 65.0403 110.101 64.7801 109.738 64.6007C109.373 64.4213 108.97 64.3304 108.526 64.3304C107.89 64.3304 107.347 64.5325 106.898 64.9367C106.449 65.3409 106.193 65.9017 106.13 66.6217H110.923C110.923 66.1442 110.816 65.7324 110.603 65.3864Z" fill="#57739B"/>
<path d="M114.524 65.111C114.838 64.5275 115.269 64.0727 115.819 63.7519C116.37 63.4311 116.986 63.2694 117.668 63.2694C118.259 63.2694 118.809 63.4058 119.316 63.6761C119.824 63.9464 120.212 64.3052 120.48 64.7447V60.7432H121.756V70.9567H120.48V69.5345C120.232 69.9867 119.862 70.3555 119.372 70.646C118.883 70.9365 118.31 71.0805 117.655 71.0805C117.001 71.0805 116.37 70.9138 115.819 70.5828C115.269 70.2519 114.838 69.7871 114.524 69.1884C114.209 68.5896 114.052 67.9101 114.052 67.1472C114.052 66.3842 114.209 65.6971 114.524 65.111ZM120.135 65.6693C119.905 65.2474 119.593 64.9216 119.2 64.6967C118.807 64.4719 118.376 64.3582 117.904 64.3582C117.432 64.3582 117.004 64.4694 116.616 64.6891C116.228 64.9089 115.918 65.2323 115.688 65.6542C115.457 66.0786 115.34 66.5737 115.34 67.1446C115.34 67.7156 115.457 68.2284 115.688 68.6553C115.918 69.0823 116.228 69.4107 116.616 69.6355C117.004 69.8603 117.432 69.974 117.904 69.974C118.376 69.974 118.807 69.8603 119.2 69.6355C119.593 69.4107 119.905 69.0823 120.135 68.6553C120.366 68.2284 120.483 67.7282 120.483 67.1573C120.483 66.5863 120.366 66.0912 120.135 65.6668V65.6693Z" fill="#57739B"/>
<path d="M129.845 63.6206C130.307 63.8657 130.669 64.2294 130.933 64.717C131.197 65.2046 131.329 65.7982 131.329 66.498V70.9568H130.081V66.6774C130.081 65.922 129.891 65.346 129.513 64.9444C129.135 64.5452 128.618 64.3431 127.961 64.3431C127.304 64.3431 126.767 64.5503 126.376 64.9646C125.983 65.3789 125.788 65.9827 125.788 66.7734V70.9543H124.528V60.7407H125.788V64.4669C126.036 64.0804 126.381 63.7823 126.82 63.5701C127.259 63.3579 127.751 63.2518 128.296 63.2518C128.869 63.2518 129.386 63.3731 129.848 63.6181L129.845 63.6206Z" fill="#57739B"/>
<path d="M140.567 63.3933L135.995 74.5163H134.694L136.19 70.8735L133.129 63.3933H134.529L136.913 69.522L139.268 63.3933H140.572H140.567Z" fill="#57739B"/>
<path d="M142.258 70.79C142.091 70.6233 142.01 70.4212 142.01 70.1837C142.01 69.9462 142.093 69.7416 142.258 69.5774C142.425 69.4107 142.628 69.3298 142.867 69.3298C143.105 69.3298 143.293 69.4132 143.455 69.5774C143.617 69.7441 143.698 69.9462 143.698 70.1837C143.698 70.4212 143.617 70.6258 143.455 70.79C143.293 70.9567 143.097 71.0376 142.867 71.0376C142.636 71.0376 142.423 70.9542 142.258 70.79Z" fill="#57739B"/>
<path d="M146.011 65.1112C146.326 64.5276 146.762 64.0729 147.32 63.752C147.878 63.4312 148.519 63.2695 149.239 63.2695C150.173 63.2695 150.941 63.4944 151.547 63.9466C152.15 64.3962 152.551 65.0227 152.746 65.8236H151.39C151.26 65.3638 151.009 65 150.634 64.7322C150.261 64.4644 149.797 64.3331 149.242 64.3331C148.522 64.3331 147.938 64.5781 147.497 65.0707C147.056 65.5633 146.833 66.2606 146.833 67.1625C146.833 68.0643 147.053 68.7767 147.497 69.2744C147.941 69.7721 148.522 70.0196 149.242 70.0196C149.797 70.0196 150.259 69.8908 150.626 69.6331C150.997 69.3754 151.25 69.0066 151.387 68.5291H152.744C152.541 69.3022 152.135 69.9211 151.524 70.3859C150.916 70.8508 150.152 71.0832 149.239 71.0832C148.519 71.0832 147.88 70.9215 147.32 70.6007C146.762 70.2798 146.326 69.8226 146.011 69.234C145.697 68.6454 145.54 67.9557 145.54 67.165C145.54 66.3743 145.697 65.6998 146.011 65.1162V65.1112Z" fill="#57739B"/>
<path d="M156.436 70.5955C155.858 70.2746 155.406 69.8148 155.079 69.2212C154.752 68.6275 154.587 67.9404 154.587 67.1572C154.587 66.3741 154.757 65.7021 155.092 65.1085C155.429 64.5148 155.888 64.0601 156.472 63.7418C157.052 63.4235 157.704 63.2668 158.424 63.2668C159.144 63.2668 159.796 63.426 160.377 63.7418C160.957 64.0601 161.419 64.5123 161.756 65.1009C162.093 65.6895 162.261 66.3741 162.261 67.1572C162.261 67.9404 162.088 68.6275 161.741 69.2212C161.394 69.8148 160.927 70.2721 160.336 70.5955C159.745 70.9163 159.089 71.078 158.368 71.078C157.648 71.078 157.012 70.9163 156.436 70.5955V70.5955ZM159.644 69.6557C160.042 69.4435 160.362 69.1277 160.607 68.7033C160.851 68.2814 160.975 67.7661 160.975 67.1572C160.975 66.5484 160.856 66.0356 160.615 65.6112C160.374 65.1893 160.06 64.8735 159.674 64.6664C159.289 64.4592 158.865 64.3557 158.414 64.3557C157.963 64.3557 157.529 64.4592 157.146 64.6664C156.763 64.8735 156.456 65.1893 156.226 65.6112C155.995 66.0331 155.878 66.5484 155.878 67.1572C155.878 67.7661 155.992 68.2941 156.218 68.7159C156.444 69.1403 156.745 69.4536 157.126 69.6607C157.504 69.8679 157.919 69.9715 158.373 69.9715C158.827 69.9715 159.251 69.8654 159.649 69.6532L159.644 69.6557Z" fill="#57739B"/>
<path d="M175.27 63.6207C175.731 63.8658 176.096 64.2295 176.365 64.7171C176.634 65.2047 176.766 65.7983 176.766 66.4981V70.9569H175.518V66.6775C175.518 65.9221 175.331 65.3461 174.958 64.9445C174.582 64.5453 174.078 64.3432 173.441 64.3432C172.805 64.3432 172.265 64.5529 171.877 64.9722C171.489 65.3916 171.296 65.9954 171.296 66.7861V70.9544H170.048V66.6749C170.048 65.9196 169.861 65.3436 169.488 64.9419C169.113 64.5428 168.608 64.3407 167.972 64.3407C167.335 64.3407 166.795 64.5504 166.407 64.9697C166.019 65.3891 165.826 65.9928 165.826 66.7835V70.9518H164.566V63.3883H165.826V64.4796C166.075 64.083 166.409 63.7799 166.83 63.5677C167.251 63.3555 167.715 63.2494 168.223 63.2494C168.859 63.2494 169.422 63.3908 169.914 63.6763C170.403 63.9617 170.769 64.3811 171.009 64.9318C171.222 64.3988 171.572 63.9845 172.062 63.6889C172.551 63.3933 173.096 63.2468 173.697 63.2468C174.298 63.2468 174.816 63.3681 175.277 63.6131L175.27 63.6207Z" fill="#57739B"/>
<path d="M12.8339 66.0283C11.8551 66.0283 11.0157 66.3769 10.3159 67.0717C9.6185 67.7689 9.26855 68.6026 9.26855 69.5802C9.26855 70.5579 9.6185 71.3915 10.3159 72.0888C11.0157 72.7835 11.8526 73.1346 12.8339 73.1346C13.8153 73.1346 14.6521 72.786 15.352 72.0888C16.0494 71.3915 16.4019 70.5553 16.4019 69.5802C16.4019 68.6051 16.0519 67.7689 15.352 67.0717C14.6521 66.3769 13.8128 66.0283 12.8339 66.0283V66.0283Z" fill="url(#paint9_linear_1_5156)"/>
<path d="M19.8404 37.3023C21.0703 36.5091 22.7338 36.1125 24.8309 36.1125C27.349 36.1125 30.1435 36.6985 33.2195 37.8682L34.9388 31.8507C31.6118 30.6811 28.4394 30.095 25.4167 30.095C22.7338 30.095 20.34 30.5421 18.2454 31.4313C16.1482 32.3231 14.5253 33.561 13.3791 35.15C12.2329 36.7364 11.6598 38.52 11.6598 40.498C11.6598 42.6706 12.1416 44.5046 13.1077 45.9926C14.0739 47.483 15.7146 48.6729 18.0349 49.5647C19.0974 49.9562 20.5935 50.3579 22.5233 50.7772C23.8369 51.0577 24.836 51.3153 25.5207 51.5503C26.2054 51.7877 26.7734 52.1364 27.2197 52.5961C27.6685 53.0559 27.8917 53.6748 27.8917 54.4554C27.8917 55.5139 27.3262 56.2238 26.1927 56.5876C25.0592 56.9488 23.1649 57.1307 20.5099 57.1307H16.3562C12.9455 57.1307 10.4071 56.4689 8.74357 55.1451C7.08006 53.8214 6.24831 51.8231 6.24831 49.1478C6.24831 47.7837 6.48668 46.1542 6.96088 44.2596H1.04984C0.352482 46.5155 0 48.5921 0 50.4842C0 53.3262 0.727786 55.7085 2.18082 57.6284C3.63386 59.5509 5.59152 60.9706 8.05382 61.8902C10.5136 62.8097 13.2802 63.2695 16.3562 63.2695H20.5099C24.8994 63.2695 28.2822 62.5394 30.6608 61.0742C33.0369 59.6115 34.2262 57.4036 34.2262 54.4504C34.2262 51.6943 33.3868 49.6531 31.7081 48.3293C30.0294 47.0081 27.8613 45.9976 25.2062 45.3004C23.1649 44.7724 21.6282 44.2697 20.5935 43.7973C19.5589 43.3249 18.8666 42.8449 18.5167 42.3548C18.1667 41.8672 17.9918 41.2483 17.9918 40.4955C17.9918 39.1591 18.608 38.093 19.8379 37.2998L19.8404 37.3023Z" fill="#2A3E5F"/>
<path d="M21.1818 66.0283C20.203 66.0283 19.3636 66.3769 18.6663 67.0717C17.9664 67.7689 17.6165 68.6026 17.6165 69.5802C17.6165 70.5579 17.9664 71.3915 18.6663 72.0888C19.3662 72.786 20.203 73.1346 21.1818 73.1346C22.1607 73.1346 23 72.786 23.6999 72.0888C24.3973 71.3915 24.7498 70.5553 24.7498 69.5802C24.7498 68.6051 24.3998 67.7689 23.6999 67.0717C23 66.3769 22.1632 66.0283 21.1818 66.0283Z" fill="url(#paint10_linear_1_5156)"/>
<path d="M52.3982 27.1292C53.377 27.1292 54.2163 26.7806 54.9162 26.0834C55.6136 25.3887 55.9661 24.5525 55.9661 23.5748C55.9661 22.5972 55.6161 21.7635 54.9162 21.0663C54.2163 20.3716 53.377 20.0229 52.3982 20.0229C51.4193 20.0229 50.58 20.3716 49.8801 21.0663C49.1827 21.7635 48.8328 22.5997 48.8328 23.5748C48.8328 24.55 49.1827 25.3861 49.8801 26.0834C50.58 26.7806 51.4168 27.1292 52.3982 27.1292Z" fill="url(#paint11_linear_1_5156)"/>
<path d="M58.3952 33.6875C55.5982 31.2345 51.7539 30.0093 46.8623 30.0093H43.7153V36.3198H46.7786C49.071 36.3198 50.9018 36.5775 52.2737 37.0928C53.6431 37.6082 54.6498 38.4444 55.2939 39.5989C55.9355 40.7559 56.2601 42.3499 56.2601 44.3835V46.7658H41.3696V52.95H62.5921V44.3835C62.5921 39.705 61.1948 36.1379 58.3978 33.6875H58.3952Z" fill="#2A3E5F"/>
<path d="M109.913 29.1327C110.892 29.1327 111.732 28.784 112.431 28.0868C113.129 27.3921 113.479 26.5559 113.479 25.5783C113.479 24.6006 113.129 23.7669 112.431 23.0697C111.732 22.375 110.892 22.0264 109.913 22.0264C108.935 22.0264 108.095 22.375 107.395 23.0697C106.695 23.7644 106.345 24.6031 106.345 25.5783C106.345 26.5534 106.695 27.3896 107.395 28.0868C108.093 28.784 108.932 29.1327 109.913 29.1327V29.1327Z" fill="url(#paint12_linear_1_5156)"/>
<path d="M101.568 29.1327C102.547 29.1327 103.386 28.784 104.086 28.0868C104.783 27.3921 105.133 26.5559 105.133 25.5783C105.133 24.6006 104.783 23.7669 104.086 23.0697C103.386 22.375 102.547 22.0264 101.568 22.0264C100.589 22.0264 99.7497 22.375 99.0498 23.0697C98.3499 23.7669 98 24.6031 98 25.5783C98 26.5534 98.3499 27.3896 99.0498 28.0868C99.7472 28.784 100.587 29.1327 101.568 29.1327V29.1327Z" fill="url(#paint13_linear_1_5156)"/>
<path d="M156.682 46.7658H153.535C152.051 46.7658 150.956 46.3338 150.241 45.4723C149.528 44.6083 149.173 43.2568 149.173 41.4202V31.3911H142.839V41.4202C142.839 44.9848 141.649 46.7683 139.273 46.7683H135.33V31.3936H128.996V46.7683H115.365C112.987 46.7683 111.283 46.2529 110.248 45.2222C109.353 44.2749 108.907 43.0067 108.907 41.4202V32.8967H102.572V41.4202C102.572 43.2038 102.083 44.5401 101.104 45.4319C100.125 46.3237 98.8673 46.7683 97.328 46.7683H75.3499V22.2815H69.0154V52.95H97.328C99.2857 52.95 101.025 52.6291 102.549 51.99C104.073 51.3509 105.339 50.444 106.345 49.2743C107.913 51.7273 110.918 52.9525 115.363 52.9525H140.11C141.452 52.9525 142.697 52.6519 143.843 52.0532C144.989 51.4544 145.981 50.6107 146.82 49.5244C147.52 50.6663 148.483 51.5227 149.713 52.0936C150.946 52.6645 152.495 52.95 154.369 52.95H163.009V30.0118H156.674V46.7658H156.682Z" fill="#2A3E5F"/>
<path d="M173.634 18.8129C172.965 18.8129 172.412 18.6234 171.978 18.2495C171.544 17.8731 171.326 17.378 171.326 16.7641C171.326 16.1502 171.522 15.741 171.915 15.448C172.308 15.1549 172.81 15.0084 173.426 15.0084C173.9 15.0084 174.433 15.1195 175.019 15.3418L176.319 12.8358C175.285 12.3331 174.235 12.083 173.172 12.083C171.803 12.083 170.642 12.4796 169.691 13.2729C168.74 14.0661 168.266 15.0918 168.266 16.3448C168.266 17.4033 168.585 18.2268 169.229 18.8104H168.266V21.4427H176.989V18.8104H173.634V18.8129Z" fill="#2A3E5F"/>
<path d="M175.858 24.7874H169.523V52.9498H175.858V24.7874Z" fill="#2A3E5F"/>
</g>
<defs>
<linearGradient id="paint0_linear_1_5156" x1="195.394" y1="6.91936" x2="261.314" y2="70.8835" gradientUnits="userSpaceOnUse">
<stop offset="0.16" stop-color="#0F83CE"/>
<stop offset="0.59" stop-color="#5C5FEE"/>
<stop offset="1" stop-color="#9672F6"/>
</linearGradient>
<linearGradient id="paint1_linear_1_5156" x1="259.269" y1="45.6038" x2="227.694" y2="72.2675" gradientUnits="userSpaceOnUse">
<stop stop-color="#CBA4F1"/>
<stop offset="1" stop-color="#7165EF"/>
</linearGradient>
<linearGradient id="paint2_linear_1_5156" x1="235.917" y1="-2.12955" x2="242.309" y2="4.07133" gradientUnits="userSpaceOnUse">
<stop offset="0.16" stop-color="#0F83CE"/>
<stop offset="0.59" stop-color="#5C5FEE"/>
<stop offset="1" stop-color="#9672F6"/>
</linearGradient>
<linearGradient id="paint3_linear_1_5156" x1="270.348" y1="29.5897" x2="230.793" y2="98.7866" gradientUnits="userSpaceOnUse">
<stop stop-color="#B497F1"/>
<stop offset="1" stop-color="#7165EF"/>
</linearGradient>
<linearGradient id="paint4_linear_1_5156" x1="248.152" y1="2.49097" x2="257.34" y2="35.7643" gradientUnits="userSpaceOnUse">
<stop stop-color="#0F83CE"/>
<stop offset="1" stop-color="#5C5FEE"/>
</linearGradient>
<linearGradient id="paint5_linear_1_5156" x1="240.781" y1="-11.4665" x2="196.588" y2="44.6452" gradientUnits="userSpaceOnUse">
<stop stop-color="#3FDFDD"/>
<stop offset="1" stop-color="#148AD2"/>
</linearGradient>
<linearGradient id="paint6_linear_1_5156" x1="267.348" y1="26.7631" x2="257.973" y2="66.6758" gradientUnits="userSpaceOnUse">
<stop stop-color="#3FDFDD"/>
<stop offset="1" stop-color="#148AD2"/>
</linearGradient>
<linearGradient id="paint7_linear_1_5156" x1="239.911" y1="15.208" x2="257.618" y2="15.208" gradientUnits="userSpaceOnUse">
<stop stop-color="#CBA4F1"/>
<stop offset="1" stop-color="#7165EF"/>
</linearGradient>
<linearGradient id="paint8_linear_1_5156" x1="253.942" y1="17.7546" x2="259.051" y2="36.2541" gradientUnits="userSpaceOnUse">
<stop stop-color="#CBA4F1"/>
<stop offset="1" stop-color="#7165EF"/>
</linearGradient>
<linearGradient id="paint9_linear_1_5156" x1="-47.1894" y1="6.29298" x2="107.761" y2="170.908" gradientUnits="userSpaceOnUse">
<stop stop-color="#3FDFDD"/>
<stop offset="1" stop-color="#148AD2"/>
</linearGradient>
<linearGradient id="paint10_linear_1_5156" x1="-42.7796" y1="2.14239" x2="112.17" y2="166.758" gradientUnits="userSpaceOnUse">
<stop stop-color="#3FDFDD"/>
<stop offset="1" stop-color="#148AD2"/>
</linearGradient>
<linearGradient id="paint11_linear_1_5156" x1="-3.23559" y1="-35.0818" x2="151.714" y2="129.536" gradientUnits="userSpaceOnUse">
<stop stop-color="#3FDFDD"/>
<stop offset="1" stop-color="#148AD2"/>
</linearGradient>
<linearGradient id="paint12_linear_1_5156" x1="26.147" y1="-62.7389" x2="181.097" y2="101.879" gradientUnits="userSpaceOnUse">
<stop stop-color="#3FDFDD"/>
<stop offset="1" stop-color="#148AD2"/>
</linearGradient>
<linearGradient id="paint13_linear_1_5156" x1="21.7372" y1="-58.5883" x2="176.687" y2="106.03" gradientUnits="userSpaceOnUse">
<stop stop-color="#3FDFDD"/>
<stop offset="1" stop-color="#148AD2"/>
</linearGradient>
<clipPath id="clip0_1_5156">
<rect width="271" height="78" fill="white"/>
</clipPath>
</defs>
</svg>
