<svg width="1287" height="1101"  viewBox="0 0 1287 1101" fill="none" xmlns="http://www.w3.org/2000/svg">
<path d="M1586.62 718.704L1773.31 1100.45L2088.4 161.576L2427.95 177.616C1180.22 41.0631 712.836 17.6293 495.506 101.441C160.638 230.581 -120.956 457.942 377.959 594.68C822.147 716.419 1713.96 673.153 1586.62 718.704Z" fill="#FFEBA1" fill-opacity="0.63"/>
<path d="M1479.62 666.217L1666.31 1047.96L1981.4 109.089L2320.95 125.128C1073.22 -11.4247 605.836 -34.8585 388.506 48.9536C53.6377 178.093 -227.956 405.454 270.959 542.192C715.147 663.931 1606.96 620.665 1479.62 666.217Z" fill="#EEFBFC"/>
</svg>
